module gitlab.com/gitlab-org/labkit

require (
	cloud.google.com/go v0.81.0
	github.com/HdrHistogram/hdrhistogram-go v1.1.0 // indirect
	github.com/Microsoft/go-winio v0.4.19 // indirect
	github.com/certifi/gocertifi v0.0.0-20180905225744-ee1a9a0726d2 // indirect
	github.com/client9/reopen v1.0.0
	github.com/getsentry/raven-go v0.2.0
	github.com/getsentry/sentry-go v0.10.0
	github.com/grpc-ecosystem/go-grpc-middleware v1.3.0
	github.com/lightstep/lightstep-tracer-common/golang/gogo v0.0.0-20210210170715-a8dfcb80d3a7 // indirect
	github.com/lightstep/lightstep-tracer-go v0.24.0
	github.com/oklog/ulid/v2 v2.0.2
	github.com/opentracing/opentracing-go v1.2.0
	github.com/philhofer/fwd v1.0.0 // indirect
	github.com/prometheus/client_golang v1.10.0
	github.com/prometheus/client_model v0.2.0
	github.com/sebest/xff v0.0.0-20210106013422-671bd2870b3a
	github.com/sirupsen/logrus v1.8.1
	github.com/stretchr/testify v1.7.0
	github.com/uber/jaeger-client-go v2.27.0+incompatible
	github.com/uber/jaeger-lib v2.4.1+incompatible // indirect
	google.golang.org/api v0.45.0
	google.golang.org/grpc v1.37.0
	gopkg.in/DataDog/dd-trace-go.v1 v1.30.0
)

go 1.15
